[
  {
    "description": "Migrate pipe's codebase to Python. Now the pipe is based on AWS Boto3 lambda. Breaking Changes: parameters passed to variables should be AWS boto3 lambda related https://boto3.amazonaws.com/v1/documentation/api/latest/reference/services/lambda.html.",
    "type": "major"
  }
]