{
  "changes": [
    {
      "description": "Internal maintenance: update pipe versions in pipeline config file.",
      "type": "patch"
    },
    {
      "description": "Internal maintenance: update requirements.",
      "type": "patch"
    },
    {
      "description": "Update test files to fix vulnerability with axios.",
      "type": "patch"
    },
    {
      "description": "Update variables description in README.",
      "type": "patch"
    }
  ],
  "created_at": "2023-11-08T13:06:43.766347+00:00",
  "version": "1.10.1"
}